﻿<?xml version="1.0" encoding="utf-8"?>
<?AutomationStudio Version="4.2.5.383"?>
<Objects>
  <Object
    Path="C:\Users\patrick.vanieperen\Documents\Diverse Ontwikkelingen\Marel Stork\TR1G\Software\Sbus_emulator\Logical\Package.pkg"
    LogicalPath=""
    Type="Package"
    LastWriteTime="131175542276080233" />
  <Object
    Path="C:\Users\patrick.vanieperen\Documents\Diverse Ontwikkelingen\Marel Stork\TR1G\Software\Sbus_emulator\Logical\Global.typ"
    LogicalPath="Global.typ"
    Type="File"
    LastWriteTime="131129484876912425"
    Private="false" />
  <Object
    Path="C:\Users\patrick.vanieperen\Documents\Diverse Ontwikkelingen\Marel Stork\TR1G\Software\Sbus_emulator\Logical\Global.var"
    LogicalPath="Global.var"
    Type="File"
    LastWriteTime="131129484876942419"
    Private="false" />
  <Object
    Path="C:\Users\patrick.vanieperen\Documents\Diverse Ontwikkelingen\Marel Stork\TR1G\Software\Sbus_emulator\Logical\Libraries\Package.pkg"
    LogicalPath="Libraries"
    Type="Package"
    LastWriteTime="131129536898920508" />
  <Object
    Path="C:\Users\patrick.vanieperen\Documents\Diverse Ontwikkelingen\Marel Stork\TR1G\Software\Sbus_emulator\Logical\Libraries\Runtime\Binary.lby"
    LogicalPath="Libraries.Runtime"
    Type="Library"
    LastWriteTime="131091691340000000" />
  <Object
    Path="C:\Users\patrick.vanieperen\Documents\Diverse Ontwikkelingen\Marel Stork\TR1G\Software\Sbus_emulator\Logical\Libraries\Runtime\runtime.fun"
    LogicalPath="Libraries.Runtime.runtime.fun"
    Type="File"
    LastWriteTime="131091691340000000"
    Private="false" />
  <Object
    Path="C:\Users\patrick.vanieperen\Documents\Diverse Ontwikkelingen\Marel Stork\TR1G\Software\Sbus_emulator\Logical\Libraries\Runtime\runtime.typ"
    LogicalPath="Libraries.Runtime.runtime.typ"
    Type="File"
    LastWriteTime="131091691340000000"
    Private="false" />
  <Object
    Path="C:\Users\patrick.vanieperen\Documents\Diverse Ontwikkelingen\Marel Stork\TR1G\Software\Sbus_emulator\Logical\Libraries\Runtime\runtime.var"
    LogicalPath="Libraries.Runtime.runtime.var"
    Type="File"
    LastWriteTime="131091691340000000"
    Private="false" />
  <Object
    Path="C:\Users\patrick.vanieperen\Documents\Diverse Ontwikkelingen\Marel Stork\TR1G\Software\Sbus_emulator\Logical\Libraries\Operator\Binary.lby"
    LogicalPath="Libraries.Operator"
    Type="Library"
    LastWriteTime="131091691340000000" />
  <Object
    Path="C:\Users\patrick.vanieperen\Documents\Diverse Ontwikkelingen\Marel Stork\TR1G\Software\Sbus_emulator\Logical\Libraries\Operator\operator.fun"
    LogicalPath="Libraries.Operator.operator.fun"
    Type="File"
    LastWriteTime="131091691340000000"
    Private="false" />
  <Object
    Path="C:\Users\patrick.vanieperen\Documents\Diverse Ontwikkelingen\Marel Stork\TR1G\Software\Sbus_emulator\Logical\Libraries\Operator\operator.typ"
    LogicalPath="Libraries.Operator.operator.typ"
    Type="File"
    LastWriteTime="131091691340000000"
    Private="false" />
  <Object
    Path="C:\Users\patrick.vanieperen\Documents\Diverse Ontwikkelingen\Marel Stork\TR1G\Software\Sbus_emulator\Logical\Libraries\Operator\operator.var"
    LogicalPath="Libraries.Operator.operator.var"
    Type="File"
    LastWriteTime="131091691340000000"
    Private="false" />
  <Object
    Path="C:\Users\patrick.vanieperen\Documents\Diverse Ontwikkelingen\Marel Stork\TR1G\Software\Sbus_emulator\Logical\Libraries\AsIecCon\Binary.lby"
    LogicalPath="Libraries.AsIecCon"
    Type="Library"
    LastWriteTime="131091691340000000" />
  <Object
    Path="C:\Users\patrick.vanieperen\Documents\Diverse Ontwikkelingen\Marel Stork\TR1G\Software\Sbus_emulator\Logical\Libraries\AsIecCon\AsIecCon.fun"
    LogicalPath="Libraries.AsIecCon.AsIecCon.fun"
    Type="File"
    LastWriteTime="131091691340000000"
    Private="false" />
  <Object
    Path="C:\Users\patrick.vanieperen\Documents\Diverse Ontwikkelingen\Marel Stork\TR1G\Software\Sbus_emulator\Logical\Libraries\AsIecCon\AsIecCon.typ"
    LogicalPath="Libraries.AsIecCon.AsIecCon.typ"
    Type="File"
    LastWriteTime="131091691340000000"
    Private="false" />
  <Object
    Path="C:\Users\patrick.vanieperen\Documents\Diverse Ontwikkelingen\Marel Stork\TR1G\Software\Sbus_emulator\Logical\Libraries\AsIecCon\AsIecCon.var"
    LogicalPath="Libraries.AsIecCon.AsIecCon.var"
    Type="File"
    LastWriteTime="131091691340000000"
    Private="false" />
  <Object
    Path="C:\Users\patrick.vanieperen\Documents\Diverse Ontwikkelingen\Marel Stork\TR1G\Software\Sbus_emulator\Logical\Libraries\astime\Binary.lby"
    LogicalPath="Libraries.astime"
    Type="Library"
    LastWriteTime="131091691340000000" />
  <Object
    Path="C:\Users\patrick.vanieperen\Documents\Diverse Ontwikkelingen\Marel Stork\TR1G\Software\Sbus_emulator\Logical\Libraries\astime\astime.fun"
    LogicalPath="Libraries.astime.astime.fun"
    Type="File"
    LastWriteTime="131091691340000000"
    Private="false" />
  <Object
    Path="C:\Users\patrick.vanieperen\Documents\Diverse Ontwikkelingen\Marel Stork\TR1G\Software\Sbus_emulator\Logical\Libraries\astime\astime.typ"
    LogicalPath="Libraries.astime.astime.typ"
    Type="File"
    LastWriteTime="131091691340000000"
    Private="false" />
  <Object
    Path="C:\Users\patrick.vanieperen\Documents\Diverse Ontwikkelingen\Marel Stork\TR1G\Software\Sbus_emulator\Logical\Libraries\astime\astime.var"
    LogicalPath="Libraries.astime.astime.var"
    Type="File"
    LastWriteTime="131091691340000000"
    Private="false" />
  <Object
    Path="C:\Users\patrick.vanieperen\Documents\Diverse Ontwikkelingen\Marel Stork\TR1G\Software\Sbus_emulator\Logical\Libraries\CAN_Lib\Binary.lby"
    LogicalPath="Libraries.CAN_Lib"
    Type="Library"
    LastWriteTime="131129530103949610" />
  <Object
    Path="C:\Users\patrick.vanieperen\Documents\Diverse Ontwikkelingen\Marel Stork\TR1G\Software\Sbus_emulator\Logical\Libraries\CAN_Lib\CAN_Lib.fun"
    LogicalPath="Libraries.CAN_Lib.CAN_Lib.fun"
    Type="File"
    LastWriteTime="131129530103869618"
    Private="false" />
  <Object
    Path="C:\Users\patrick.vanieperen\Documents\Diverse Ontwikkelingen\Marel Stork\TR1G\Software\Sbus_emulator\Logical\Libraries\CAN_Lib\CAN_Lib.typ"
    LogicalPath="Libraries.CAN_Lib.CAN_Lib.typ"
    Type="File"
    LastWriteTime="131129530103889616"
    Private="false" />
  <Object
    Path="C:\Users\patrick.vanieperen\Documents\Diverse Ontwikkelingen\Marel Stork\TR1G\Software\Sbus_emulator\Logical\Libraries\CAN_Lib\CAN_Lib.var"
    LogicalPath="Libraries.CAN_Lib.CAN_Lib.var"
    Type="File"
    LastWriteTime="131129530103909614"
    Private="false" />
  <Object
    Path="C:\Users\patrick.vanieperen\Documents\Diverse Ontwikkelingen\Marel Stork\TR1G\Software\Sbus_emulator\Logical\Libraries\Sbus_lib\IEC.lby"
    LogicalPath="Libraries.Sbus_lib"
    Type="Library"
    LastWriteTime="131176226320532728" />
  <Object
    Path="C:\Users\patrick.vanieperen\Documents\Diverse Ontwikkelingen\Marel Stork\TR1G\Software\Sbus_emulator\Logical\Libraries\Sbus_lib\Types.typ"
    LogicalPath="Libraries.Sbus_lib.Types.typ"
    Type="File"
    LastWriteTime="131176415274261299"
    Private="false" />
  <Object
    Path="C:\Users\patrick.vanieperen\Documents\Diverse Ontwikkelingen\Marel Stork\TR1G\Software\Sbus_emulator\Logical\Libraries\Sbus_lib\Constants.var"
    LogicalPath="Libraries.Sbus_lib.Constants.var"
    Type="File"
    LastWriteTime="131129536615250508"
    Private="false" />
  <Object
    Path="C:\Users\patrick.vanieperen\Documents\Diverse Ontwikkelingen\Marel Stork\TR1G\Software\Sbus_emulator\Logical\Libraries\Sbus_lib\Sbus_lib.fun"
    LogicalPath="Libraries.Sbus_lib.Sbus_lib.fun"
    Type="File"
    LastWriteTime="131176361783979151"
    Private="false" />
  <Object
    Path="C:\Users\patrick.vanieperen\Documents\Diverse Ontwikkelingen\Marel Stork\TR1G\Software\Sbus_emulator\Logical\Libraries\Sbus_lib\Functions\Package.pkg"
    LogicalPath="Libraries.Sbus_lib.Functions"
    Type="Package"
    LastWriteTime="131176225746165297" />
  <Object
    Path="C:\Users\patrick.vanieperen\Documents\Diverse Ontwikkelingen\Marel Stork\TR1G\Software\Sbus_emulator\Logical\Libraries\Sbus_lib\Functions\jointTheBytes.st"
    LogicalPath="Libraries.Sbus_lib.Functions.jointTheBytes.st"
    Type="File"
    LastWriteTime="131176225746105291"
    Private="false" />
  <Object
    Path="C:\Users\patrick.vanieperen\Documents\Diverse Ontwikkelingen\Marel Stork\TR1G\Software\Sbus_emulator\Logical\Libraries\Sbus_lib\Functions\splitTheInt.st"
    LogicalPath="Libraries.Sbus_lib.Functions.splitTheInt.st"
    Type="File"
    LastWriteTime="131176225685049186"
    Private="false" />
  <Object
    Path="C:\Users\patrick.vanieperen\Documents\Diverse Ontwikkelingen\Marel Stork\TR1G\Software\Sbus_emulator\Logical\Libraries\Sbus_lib\Functions\Sbus_IdPo.st"
    LogicalPath="Libraries.Sbus_lib.Functions.Sbus_IdPo.st"
    Type="File"
    LastWriteTime="131176225363367021"
    Private="false" />
  <Object
    Path="C:\Users\patrick.vanieperen\Documents\Diverse Ontwikkelingen\Marel Stork\TR1G\Software\Sbus_emulator\Logical\Libraries\Sbus_lib\Functions\Sbus_IdPi.st"
    LogicalPath="Libraries.Sbus_lib.Functions.Sbus_IdPi.st"
    Type="File"
    LastWriteTime="131176225422882972"
    Private="false" />
  <Object
    Path="C:\Users\patrick.vanieperen\Documents\Diverse Ontwikkelingen\Marel Stork\TR1G\Software\Sbus_emulator\Logical\Libraries\Sbus_lib\FunctionBlocks\Package.pkg"
    LogicalPath="Libraries.Sbus_lib.FunctionBlocks"
    Type="Package"
    LastWriteTime="131176226320902765" />
  <Object
    Path="C:\Users\patrick.vanieperen\Documents\Diverse Ontwikkelingen\Marel Stork\TR1G\Software\Sbus_emulator\Logical\Libraries\Sbus_lib\FunctionBlocks\sBus_info.st"
    LogicalPath="Libraries.Sbus_lib.FunctionBlocks.sBus_info.st"
    Type="File"
    LastWriteTime="131176226320832758"
    Private="false" />
  <Object
    Path="C:\Users\patrick.vanieperen\Documents\Diverse Ontwikkelingen\Marel Stork\TR1G\Software\Sbus_emulator\Logical\Libraries\Sbus_lib\FunctionBlocks\sbus_controller.st"
    LogicalPath="Libraries.Sbus_lib.FunctionBlocks.sbus_controller.st"
    Type="File"
    LastWriteTime="131176431296155037"
    Private="false" />
  <Object
    Path="C:\Users\patrick.vanieperen\Documents\Diverse Ontwikkelingen\Marel Stork\TR1G\Software\Sbus_emulator\Logical\Libraries\Sbus_lib\FunctionBlocks\sBus_MasterDriver.st"
    LogicalPath="Libraries.Sbus_lib.FunctionBlocks.sBus_MasterDriver.st"
    Type="File"
    LastWriteTime="131176226236594335"
    Private="false" />
  <Object
    Path="C:\Users\patrick.vanieperen\Documents\Diverse Ontwikkelingen\Marel Stork\TR1G\Software\Sbus_emulator\Logical\Program\IEC.prg"
    LogicalPath="Program"
    Type="Program"
    LastWriteTime="131175542276060233" />
  <Object
    Path="C:\Users\patrick.vanieperen\Documents\Diverse Ontwikkelingen\Marel Stork\TR1G\Software\Sbus_emulator\Logical\Program\Cyclic.cfc"
    LogicalPath="Program.Cyclic.cfc"
    Type="File"
    LastWriteTime="131176426443219644"
    Private="false" />
  <Object
    Path="C:\Users\patrick.vanieperen\Documents\Diverse Ontwikkelingen\Marel Stork\TR1G\Software\Sbus_emulator\Logical\Program\Init.cfc"
    LogicalPath="Program.Init.cfc"
    Type="File"
    LastWriteTime="131175545655470233"
    Private="false" />
  <Object
    Path="C:\Users\patrick.vanieperen\Documents\Diverse Ontwikkelingen\Marel Stork\TR1G\Software\Sbus_emulator\Logical\Program\Exit.cfc"
    LogicalPath="Program.Exit.cfc"
    Type="File"
    LastWriteTime="131175542276010233"
    Private="false" />
  <Object
    Path="C:\Users\patrick.vanieperen\Documents\Diverse Ontwikkelingen\Marel Stork\TR1G\Software\Sbus_emulator\Logical\Program\Types.typ"
    LogicalPath="Program.Types.typ"
    Type="File"
    LastWriteTime="131175542276030233"
    Private="true" />
  <Object
    Path="C:\Users\patrick.vanieperen\Documents\Diverse Ontwikkelingen\Marel Stork\TR1G\Software\Sbus_emulator\Logical\Program\Variables.var"
    LogicalPath="Program.Variables.var"
    Type="File"
    LastWriteTime="131176362866452501"
    Private="true" />
  <Object
    Path="C:\Users\patrick.vanieperen\Documents\Diverse Ontwikkelingen\Marel Stork\TR1G\Software\Sbus_emulator\Physical\Simulation\Config.pkg"
    LogicalPath="Simulation"
    Type="Configuration"
    LastWriteTime="131175512481625719" />
  <Object
    Path="C:\Users\patrick.vanieperen\Documents\Diverse Ontwikkelingen\Marel Stork\TR1G\Software\Sbus_emulator\Physical\Simulation\Hardware.hw"
    LogicalPath="Simulation.Hardware.hw"
    Type="File"
    LastWriteTime="131175537510210233"
    Private="false" />
  <Object
    Path="C:\Users\patrick.vanieperen\Documents\Diverse Ontwikkelingen\Marel Stork\TR1G\Software\Sbus_emulator\Physical\Simulation\Hardware.hwl"
    LogicalPath="Simulation.Hardware.hwl"
    Type="File"
    LastWriteTime="131175535889628140"
    Private="false" />
  <Object
    Path="C:\Users\patrick.vanieperen\Documents\Diverse Ontwikkelingen\Marel Stork\TR1G\Software\Sbus_emulator\Physical\Simulation\X20CP1585\Cpu.pkg"
    LogicalPath="Simulation.X20CP1585"
    Type="Cpu"
    LastWriteTime="131175531711172108" />
  <Object
    Path="C:\Users\patrick.vanieperen\Documents\Diverse Ontwikkelingen\Marel Stork\TR1G\Software\Sbus_emulator\Physical\Simulation\X20CP1585\Cpu.sw"
    LogicalPath="Simulation.X20CP1585.Cpu.sw"
    Type="File"
    LastWriteTime="131175542276560233"
    Private="false" />
  <Object
    Path="C:\Users\patrick.vanieperen\Documents\Diverse Ontwikkelingen\Marel Stork\TR1G\Software\Sbus_emulator\Physical\Simulation\X20CP1585\Cpu.per"
    LogicalPath="Simulation.X20CP1585.Cpu.per"
    Type="File"
    LastWriteTime="131129484876962415"
    Private="false" />
  <Object
    Path="C:\Users\patrick.vanieperen\Documents\Diverse Ontwikkelingen\Marel Stork\TR1G\Software\Sbus_emulator\Physical\Simulation\X20CP1585\IoMap.iom"
    LogicalPath="Simulation.X20CP1585.IoMap.iom"
    Type="File"
    LastWriteTime="131091691340000000"
    Private="false" />
  <Object
    Path="C:\Users\patrick.vanieperen\Documents\Diverse Ontwikkelingen\Marel Stork\TR1G\Software\Sbus_emulator\Physical\Simulation\X20CP1585\PvMap.vvm"
    LogicalPath="Simulation.X20CP1585.PvMap.vvm"
    Type="File"
    LastWriteTime="131091691340000000"
    Private="false" />
  <Object
    Path="C:\Users\patrick.vanieperen\Documents\Diverse Ontwikkelingen\Marel Stork\TR1G\Software\Sbus_emulator\Physical\Simulation\Hardware.jpg"
    LogicalPath="Simulation.Hardware.jpg"
    Type="File"
    LastWriteTime="131175561353974058"
    Private="false" />
  <Object
    Path="C:\Users\patrick.vanieperen\Documents\Diverse Ontwikkelingen\Marel Stork\TR1G\Software\Sbus_emulator\Logical\Libraries\AsIecCon\SG4\AsIecCon.h"
    LogicalPath="AsIecCon.h"
    Type="File"
    LastWriteTime="131091691340000000"
    Private="false" />
  <Object
    Path="C:\Users\patrick.vanieperen\Documents\Diverse Ontwikkelingen\Marel Stork\TR1G\Software\Sbus_emulator\Logical\Libraries\astime\SG4\astime.h"
    LogicalPath="astime.h"
    Type="File"
    LastWriteTime="131091691340000000"
    Private="false" />
  <Object
    Path="C:\Users\patrick.vanieperen\Documents\Diverse Ontwikkelingen\Marel Stork\TR1G\Software\Sbus_emulator\Logical\Libraries\CAN_Lib\SG4\CAN_Lib.h"
    LogicalPath="CAN_Lib.h"
    Type="File"
    LastWriteTime="131097947980000000"
    Private="false" />
  <Object
    Path="C:\Users\patrick.vanieperen\Documents\Diverse Ontwikkelingen\Marel Stork\TR1G\Software\Sbus_emulator\Logical\Libraries\Operator\SG4\Operator.h"
    LogicalPath="Operator.h"
    Type="File"
    LastWriteTime="131091691340000000"
    Private="false" />
  <Object
    Path="C:\Users\patrick.vanieperen\Documents\Diverse Ontwikkelingen\Marel Stork\TR1G\Software\Sbus_emulator\Logical\Libraries\Runtime\SG4\Runtime.h"
    LogicalPath="Runtime.h"
    Type="File"
    LastWriteTime="131091691340000000"
    Private="false" />
  <Object
    Path="C:\Users\patrick.vanieperen\Documents\Diverse Ontwikkelingen\Marel Stork\TR1G\Software\Sbus_emulator\Logical\Libraries\Sbus_lib\SG4\Sbus_lib.h"
    LogicalPath="Sbus_lib.h"
    Type="File"
    LastWriteTime="0"
    Private="false" />
</Objects>